{
  "server": "108.181.22.155:12881",
  "auth": "dongtaiwang.com",
  "tls": {
    "sni": "www.bing.com",
    "insecure": true
  },
  "quic": {
    "initStreamReceiveWindow": 16777216,
    "maxStreamReceiveWindow": 16777216,
    "initConnReceiveWindow": 33554432,
    "maxConnReceiveWindow": 33554432
  },
  "fastOpen": true,
  "socks5": {
    "listen": "127.0.0.1:1080"
  },
  "transport": {
    "udp": {
      "hopInterval": "30s"
    }
  }
}
